structure(list(tt = structure(c(0.9, 0.8, 0.6, 1, 0.5, 0.5, 0.897704017307671, 
0.791505885938799, 0.597022180842661, 0.983684309053447, 0.5503027948397, 
0.473451342831669, -0.00229598269232949, -0.00849411406120106, 
-0.00297781915733893, -0.0163156909465533, 0.0503027948396996, 
-0.0265486571683306, 0.255109188036605, 1.06176425765013, 0.496303192889828, 
1.63156909465533, 10.0605589679399, 5.30973143366612, 0.000222028884992239, 
0.00127778438926677, 0.000173038636419043, 0.0327745122530404, 
0.026428583772782, 0.00567965067484214), .Dim = c(6L, 5L), .Dimnames = list(
    NULL, c("real", "estim", "bias", "rel", "mse"))), ii = 0.931266666666667, 
    jj = 0.971214524861737, kk = 0.891199041511536, ll = 0.129291703019322, 
    error_flag = 59), .Names = c("tt", "ii", "jj", "kk", "ll", 
"error_flag"))
