structure(list(tt = structure(c(0.9, 0.8, 0.6, 0.4, 1, 0.5, 0.5, 
0.1, 0.900598288034902, 0.797390137937478, 0.598668506560425, 
0.399953592594186, 0.95685686018623, 0.53893046186109, 0.47976484267924, 
0.0996967526792709, 0.000598288034902378, -0.00260986206252156, 
-0.00133149343957469, -4.64074058145109e-05, -0.0431431398137697, 
0.0389304618610901, -0.0202351573207599, -0.00030324732072915, 
0.0664764483224846, 0.326232757815195, 0.221915573262454, 0.0116018514536298, 
4.31431398137697, 7.78609237221801, 4.04703146415198, 0.303247320729144, 
6.33016477270626e-05, 0.000360373965484155, 4.11260966286902e-05, 
1.43014674832231e-06, 0.0159880414959698, 0.0145698764582718, 
0.00245848590308793, 5.29380750428239e-05), .Dim = c(8L, 5L), .Dimnames = list(
    NULL, c("real", "estim", "bias", "rel", "mse"))), ii = 0.961175, 
    jj = 0.978035370703418, kk = 0.944365268022684, ll = 0.248002000957488, 
    error_flag = 23), .Names = c("tt", "ii", "jj", "kk", "ll", 
"error_flag"))
