structure(list(tt = structure(c(0.9, 0.8, 0.6, 0.4, 0.3, 1, 0.5, 
0.5, 0.1, 1, 0.890424342737929, 0.774615045427347, 0.616769617879571, 
0.483738873569113, 0.325469387925754, 1.0784678177485, 0.586612974412553, 
0.396644938687256, 0.222946460529706, 0.932755390739238, -0.00957565726207064, 
-0.0253849545726531, 0.016769617879571, 0.0837388735691126, 0.025469387925754, 
0.0784678177485003, 0.0866129744125531, -0.103355061312744, 0.122946460529706, 
-0.0672446092607622, 1.06396191800785, 3.17311932158162, 2.79493631326183, 
20.9347183922781, 8.48979597525135, 7.84678177485003, 17.3225948825106, 
20.6710122625488, 122.946460529706, 6.72446092607621, 0.000478169316514089, 
0.00563890213174906, 0.00874780755144811, 0.0195501824365925, 
0.00335954269946665, 0.0519930583369723, 0.0447306109238472, 
0.0228033037106857, 0.0289394329535687, 0.0259416295556041), .Dim = c(10L, 
5L), .Dimnames = list(NULL, c("real", "estim", "bias", "rel", 
"mse"))), ii = 0.646, jj = 0.889334071433817, kk = 0.436425042605824, 
    ll = 0.175564690349911, error_flag = 0), .Names = c("tt", 
"ii", "jj", "kk", "ll", "error_flag"))
